année,annee
type de zone administrative,type_zone_administrative
nom,nom
population,population
cog (code officiel géographique),cog
url,url
taxe additionnelle à la taxe foncière sur les propriétés non bâties - base nette imposée,tatafp_base_nette_imposee
taxe additionnelle à la taxe foncière sur les propriétés non bâties - réductions de bases accordées sur délibérations,tatafp_reduc_base_accordee
taxe additionnelle à la taxe foncière sur les propriétés non bâties - taux,tatafp_base_taux
taxe additionnelle à la taxe foncière sur les propriétés non bâties - produits,tatafp_base_nette_produits
avances du trésor au 31/12/n,avances_tresor_31_12_n
dotation globale de fonctionnement,dotation_globale_fonc
impositions forfaitaires sur les entreprises de réseau - base nette imposée,impo_forfait_entreprise_base_nette
impositions forfaitaires sur les entreprises de réseau - réductions de bases accordées sur délibérations,impo_forfait_entreprise_reduc_base
impositions forfaitaires sur les entreprises de réseau - taux,impo_forfait_entreprise_base_taux
impositions forfaitaires sur les entreprises de réseau - produits,impo_forfait_entreprise_base_produits
cotisation sur la valeur ajoutée des entreprises - base nette imposée,coti_va_entreprise_base_nette
cotisation sur la valeur ajoutée des entreprises - réductions de bases accordées sur délibérations,coti_va_entreprise_reduc_base
cotisation sur la valeur ajoutée des entreprises - taux,coti_va_entreprise_base_taux
cotisation sur la valeur ajoutée des entreprises - produits,coti_va_entreprise_base_produits
cotisation foncière des entreprises - base nette imposée,coti_fonciere_entreprise_base_nette
cotisation foncière des entreprises - réductions de bases accordées sur délibérations,coti_fonciere_entreprise_reduc_base
cotisation foncière des entreprises - taux,coti_fonciere_entreprise_taux
cotisation foncière des entreprises - produits,coti_fonciere_entreprise_produits
taxe professionnelle (hors bases écrêtées) - base nette imposée,taxe_pro_base_nette
taxe professionnelle (hors bases écrêtées) - réductions de bases accordées sur délibérations,taxe_pro_reduc_base
taxe professionnelle (hors bases écrêtées) - taux,taxe_pro_taux
taxe professionnelle (hors bases écrêtées) - produits,taxe_pro_produits
contingents,contingents
charges à répartir,charges_repartir
annuité de la dette,annuite_dette
encours total de la dette au 31/12/n,encours_total_dette_31_12_n
caf nette du remboursement en capital des emprunts,caf_nette_rce
remboursement d'emprunts et dettes assimilées,remboursemet_emprunt_dette_assimilees
dépenses d'équipement,depense_equipement
fctva,fctva
charges financières,charges_financieres
Err:509,erreur509
"immobilisations affectées, concédées, ...",immobilisation_affectees
résultat d'ensemble = r - e,res_ensemble
taxe d'habitation (y compris thlv) - base nette imposée,taxe_habita_base_nette
taxe d'habitation (y compris thlv) - réductions de bases accordées sur délibérations,taxe_habita_reduc_base
taxe d'habitation (y compris thlv) - taux,taxe_habita_taux
taxe d'habitation (y compris thlv) - produits,taxe_habita_produits
total des ressources d'investissement = c,total_ressources_investissement
total des emplois d'investissement = d,total_emplois_investissement
taxe foncière sur les propriétés non bâties - base nette imposée,taxef_propriete_nbaties_base_nette
taxe foncière sur les propriétés non bâties - réductions de bases accordées sur délibérations,taxef_propriete_nbaties_reduc_base
taxe foncière sur les propriétés non bâties - taux,taxef_propriete_nbaties_taux
taxe foncière sur les propriétés non bâties - produits,taxef_propriete_nbaties_produits
emprunts bancaires et dettes assimilées,emprunts_bank_et_dettes
impôts locaux,impots_locaux
resultat comptable = a - b = r,res_comptable
total des charges de fonctionnement = b,total_charges_fonctionnement_b
total des produits de fonctionnement = a,total_produits_fonctionnement_a
autres impôts et taxes,autres_impots_taxes
subventions versées,subventions_versees
taxe foncière sur les propriétés bâties - base nette imposée,taxef_propriete_baties_base_nette
taxe foncière sur les propriétés bâties - réductions de bases accordées sur délibérations,taxef_propriete_baties_reduc_base
taxe foncière sur les propriétés bâties - taux,taxef_propriete_baties_taux
taxe foncière sur les propriétés bâties - produits,taxef_propriete_baties_produits
achats et charges externes,achats_charges_externes
subventions reçues,subventions_recues
besoin ou capacité de financement résiduel de la section d'investissement = d - c,bcfrsi
taxe sur les surfaces commerciales - base nette imposée,taxe_surface_commeriales_base_nette
taxe sur les surfaces commerciales - réductions de bases accordées sur délibérations,taxe_surface_commeriales_reduc_taux
taxe sur les surfaces commerciales - taux,taxe_surface_commeriales_taux
taxe sur les surfaces commerciales - produits,taxe_surface_commeriales_produits
"retour de biens affectés, concédés, ...",retour_biens_affectes
capacité d'autofinancement = caf,capacite_autofinancement
charges de personnel,charges_de_personnel
excédent brut de fonctionnement,excedent_brut_de_fonctionnement
solde des opérations pour le compte de tiers,solde_des_ope_compte_tiers
fonds de roulement,fonds_de_roulement
